-------------------------------------------------------------------------------
Test set: com.todoapplication.Todo.application.TodoApplicationTests
-------------------------------------------------------------------------------
Tests run: 1, Failures: 0, Errors: 0, Skipped: 0, Time elapsed: 29.207 s - in com.todoapplication.Todo.application.TodoApplicationTests
